output/nBitCounter.vcd
$date
  Wed Nov 19 18:07:57 2025
$end
$version
  GHDL v0
$end
$timescale
  1 fs
$end
$scope module standard $end
$upscope $end
$scope module std_logic_1164 $end
$upscope $end
$scope module tb_nbitcounter $end
$var reg 1 ! i_resetbar $end
$var reg 1 " i_resetcount $end
$var reg 1 # i_load $end
$var reg 1 $ i_clock $end
$var reg 4 % o_value[3:0] $end
$var reg 1 & stop_clock $end
$scope module uut $end
$var reg 1 ' i_resetbar $end
$var reg 1 ( i_resetcount $end
$var reg 1 ) i_load $end
$var reg 1 * i_clock $end
$var reg 4 + o_value[3:0] $end
$var reg 4 , int_q[3:0] $end
$var reg 4 - int_qbar[3:0] $end
$var reg 4 . int_d[3:0] $end
$var reg 4 / int_countval[3:0] $end
$var reg 4 0 int_carry[3:0] $end
$var reg 1 1 int_zero $end
$scope module gen_increment(1) $end
$upscope $end
$scope module gen_increment(2) $end
$upscope $end
$scope module gen_increment(3) $end
$upscope $end
$scope module gen_mux(0) $end
$scope module mux $end
$var reg 1 2 s $end
$var reg 1 3 x0 $end
$var reg 1 4 x1 $end
$var reg 1 5 y $end
$var reg 1 6 not_s $end
$var reg 1 7 selx0 $end
$var reg 1 8 selx1 $end
$upscope $end
$upscope $end
$scope module gen_mux(1) $end
$scope module mux $end
$var reg 1 9 s $end
$var reg 1 : x0 $end
$var reg 1 ; x1 $end
$var reg 1 < y $end
$var reg 1 = not_s $end
$var reg 1 > selx0 $end
$var reg 1 ? selx1 $end
$upscope $end
$upscope $end
$scope module gen_mux(2) $end
$scope module mux $end
$var reg 1 @ s $end
$var reg 1 A x0 $end
$var reg 1 B x1 $end
$var reg 1 C y $end
$var reg 1 D not_s $end
$var reg 1 E selx0 $end
$var reg 1 F selx1 $end
$upscope $end
$upscope $end
$scope module gen_mux(3) $end
$scope module mux $end
$var reg 1 G s $end
$var reg 1 H x0 $end
$var reg 1 I x1 $end
$var reg 1 J y $end
$var reg 1 K not_s $end
$var reg 1 L selx0 $end
$var reg 1 M selx1 $end
$upscope $end
$upscope $end
$scope module counterff(0) $end
$scope module bff $end
$var reg 1 N i_resetbar $end
$var reg 1 O i_d $end
$var reg 1 P i_enable $end
$var reg 1 Q i_clock $end
$var reg 1 R o_q $end
$var reg 1 S o_qbar $end
$var reg 1 T int_q $end
$upscope $end
$upscope $end
$scope module counterff(1) $end
$scope module bff $end
$var reg 1 U i_resetbar $end
$var reg 1 V i_d $end
$var reg 1 W i_enable $end
$var reg 1 X i_clock $end
$var reg 1 Y o_q $end
$var reg 1 Z o_qbar $end
$var reg 1 [ int_q $end
$upscope $end
$upscope $end
$scope module counterff(2) $end
$scope module bff $end
$var reg 1 \ i_resetbar $end
$var reg 1 ] i_d $end
$var reg 1 ^ i_enable $end
$var reg 1 _ i_clock $end
$var reg 1 ` o_q $end
$var reg 1 a o_qbar $end
$var reg 1 b int_q $end
$upscope $end
$upscope $end
$scope module counterff(3) $end
$scope module bff $end
$var reg 1 c i_resetbar $end
$var reg 1 d i_d $end
$var reg 1 e i_enable $end
$var reg 1 f i_clock $end
$var reg 1 g o_q $end
$var reg 1 h o_qbar $end
$var reg 1 i int_q $end
$upscope $end
$upscope $end
$upscope $end
$upscope $end
$enddefinitions $end
#0
0!
0"
0#
0$
b0000 %
0&
0'
0(
0)
0*
b0000 +
b0000 ,
b1111 -
b0001 .
b0001 /
b0000 0
01
02
13
04
15
16
17
08
09
0:
0;
0<
1=
0>
0?
0@
0A
0B
0C
1D
0E
0F
0G
0H
0I
0J
1K
0L
0M
0N
1O
0P
0Q
0R
1S
0T
0U
0V
0W
0X
0Y
1Z
0[
0\
0]
0^
0_
0`
1a
0b
0c
0d
0e
0f
0g
1h
0i
#5000000
1$
1*
1Q
1X
1_
1f
#10000000
0$
0*
0Q
0X
0_
0f
#15000000
1$
1*
1Q
1X
1_
1f
#20000000
1!
0$
1'
0*
1N
0Q
1U
0X
1\
0_
1c
0f
#25000000
1$
1*
1Q
1X
1_
1f
#30000000
1#
0$
1)
0*
1P
0Q
1W
0X
1^
0_
1e
0f
#35000000
1$
b0001 %
1*
b0001 +
b0001 ,
b1110 -
b0010 .
b0010 /
b0001 0
03
05
07
1:
1<
1>
0O
1Q
1R
0S
1T
1V
1X
1_
1f
#40000000
0$
0*
0Q
0X
0_
0f
#41000000
#45000000
1$
b0010 %
1*
b0010 +
b0010 ,
b1101 -
b0011 .
b0011 /
b0000 0
13
15
17
1:
1<
1>
0A
0C
0E
1O
1Q
0R
1S
0T
1V
1X
1Y
0Z
1[
0]
1_
1f
#50000000
0$
0*
0Q
0X
0_
0f
#55000000
1$
b0011 %
1*
b0011 +
b0011 ,
b1100 -
b0100 .
b0100 /
b0011 0
03
05
07
0:
0<
0>
1A
1C
1E
0O
1Q
1R
0S
1T
0V
1X
1]
1_
1f
#60000000
0$
0*
0Q
0X
0_
0f
#65000000
1$
b0100 %
1*
b0100 +
b0100 ,
b1011 -
b0101 .
b0101 /
b0000 0
13
15
17
0:
0<
0>
1A
1C
1E
0H
0J
0L
1O
1Q
0R
1S
0T
0V
1X
0Y
1Z
0[
1]
1_
1`
0a
1b
0d
1f
#70000000
0$
0*
0Q
0X
0_
0f
#71000000
#72000000
#75000000
1$
b0101 %
1*
b0101 +
b0101 ,
b1010 -
b0110 .
b0110 /
b0001 0
03
05
07
1:
1<
1>
0O
1Q
1R
0S
1T
1V
1X
1_
1f
#80000000
0$
0*
0Q
0X
0_
0f
#85000000
1$
b0110 %
1*
b0110 +
b0110 ,
b1001 -
b0111 .
b0111 /
b0000 0
13
15
17
1:
1<
1>
1A
1C
1E
0H
0J
0L
1O
1Q
0R
1S
0T
1V
1X
1Y
0Z
1[
1]
1_
0d
1f
#90000000
0$
0*
0Q
0X
0_
0f
#95000000
1$
b0111 %
1*
b0111 +
b0111 ,
b1000 -
b1000 .
b1000 /
b0111 0
03
05
07
0:
0<
0>
0A
0C
0E
1H
1J
1L
0O
1Q
1R
0S
1T
0V
1X
0]
1_
1d
1f
#100000000
0$
0*
0Q
0X
0_
0f
#105000000
1$
b1000 %
1*
b1000 +
b1000 ,
b0111 -
b1001 .
b1001 /
b0000 0
13
15
17
0:
0<
0>
0A
0C
0E
1H
1J
1L
1O
1Q
0R
1S
0T
0V
1X
0Y
1Z
0[
0]
1_
0`
1a
0b
1d
1f
1g
0h
1i
#110000000
0$
0*
0Q
0X
0_
0f
#115000000
1$
b1001 %
1*
b1001 +
b1001 ,
b0110 -
b1010 .
b1010 /
b0001 0
03
05
07
1:
1<
1>
0O
1Q
1R
0S
1T
1V
1X
1_
1f
#120000000
0$
0*
0Q
0X
0_
0f
#125000000
1$
b1010 %
1*
b1010 +
b1010 ,
b0101 -
b1011 .
b1011 /
b0000 0
13
15
17
1:
1<
1>
0A
0C
0E
1O
1Q
0R
1S
0T
1V
1X
1Y
0Z
1[
0]
1_
1f
#130000000
0$
0*
0Q
0X
0_
0f
#135000000
1$
b1011 %
1*
b1011 +
b1011 ,
b0100 -
b1100 .
b1100 /
b0011 0
03
05
07
0:
0<
0>
1A
1C
1E
0O
1Q
1R
0S
1T
0V
1X
1]
1_
1f
#140000000
0$
0*
0Q
0X
0_
0f
#145000000
1$
b1100 %
1*
b1100 +
b1100 ,
b0011 -
b1101 .
b1101 /
b0000 0
13
15
17
0:
0<
0>
1A
1C
1E
1H
1J
1L
1O
1Q
0R
1S
0T
0V
1X
0Y
1Z
0[
1]
1_
1`
0a
1b
1d
1f
#150000000
0$
0*
0Q
0X
0_
0f
#155000000
1$
b1101 %
1*
b1101 +
b1101 ,
b0010 -
b1110 .
b1110 /
b0001 0
03
05
07
1:
1<
1>
0O
1Q
1R
0S
1T
1V
1X
1_
1f
#160000000
0$
0*
0Q
0X
0_
0f
#165000000
1$
b1110 %
1*
b1110 +
b1110 ,
b0001 -
b1111 .
b1111 /
b0000 0
13
15
17
1:
1<
1>
1A
1C
1E
1H
1J
1L
1O
1Q
0R
1S
0T
1V
1X
1Y
0Z
1[
1]
1_
1d
1f
#170000000
0$
0*
0Q
0X
0_
0f
#175000000
1$
b1111 %
1*
b1111 +
b1111 ,
b0000 -
b0000 .
b0000 /
b1111 0
03
05
07
0:
0<
0>
0A
0C
0E
0H
0J
0L
0O
1Q
1R
0S
1T
0V
1X
0]
1_
0d
1f
#180000000
0$
0*
0Q
0X
0_
0f
#185000000
1$
b0000 %
1*
b0000 +
b0000 ,
b1111 -
b0001 .
b0001 /
b0000 0
13
15
17
0:
0<
0>
0A
0C
0E
0H
0J
0L
1O
1Q
0R
1S
0T
0V
1X
0Y
1Z
0[
0]
1_
0`
1a
0b
0d
1f
0g
1h
0i
#190000000
0$
0*
0Q
0X
0_
0f
#192000000
#193000000
0#
0)
0P
0W
0^
0e
#195000000
1$
1*
1Q
1X
1_
1f
#200000000
0$
0*
0Q
0X
0_
0f
#205000000
1$
1*
1Q
1X
1_
1f
#210000000
0$
0*
0Q
0X
0_
0f
#215000000
1$
1*
1Q
1X
1_
1f
#220000000
0$
0*
0Q
0X
0_
0f
#225000000
1$
1*
1Q
1X
1_
1f
#230000000
0$
0*
0Q
0X
0_
0f
#233000000
#234000000
1#
1)
1P
1W
1^
1e
#235000000
1$
b0001 %
1*
b0001 +
b0001 ,
b1110 -
b0010 .
b0010 /
b0001 0
03
05
07
1:
1<
1>
0O
1Q
1R
0S
1T
1V
1X
1_
1f
#240000000
0$
0*
0Q
0X
0_
0f
#244000000
#245000000
1$
b0010 %
1*
b0010 +
b0010 ,
b1101 -
b0011 .
b0011 /
b0000 0
13
15
17
1:
1<
1>
0A
0C
0E
1O
1Q
0R
1S
0T
1V
1X
1Y
0Z
1[
0]
1_
1f
#250000000
0$
0*
0Q
0X
0_
0f
#255000000
1$
b0011 %
1*
b0011 +
b0011 ,
b1100 -
b0100 .
b0100 /
b0011 0
03
05
07
0:
0<
0>
1A
1C
1E
0O
1Q
1R
0S
1T
0V
1X
1]
1_
1f
#260000000
0$
0*
0Q
0X
0_
0f
#265000000
1$
b0100 %
1*
b0100 +
b0100 ,
b1011 -
b0101 .
b0101 /
b0000 0
13
15
17
0:
0<
0>
1A
1C
1E
0H
0J
0L
1O
1Q
0R
1S
0T
0V
1X
0Y
1Z
0[
1]
1_
1`
0a
1b
0d
1f
#270000000
0$
0*
0Q
0X
0_
0f
#275000000
1$
b0101 %
1*
b0101 +
b0101 ,
b1010 -
b0110 .
b0110 /
b0001 0
03
05
07
1:
1<
1>
0O
1Q
1R
0S
1T
1V
1X
1_
1f
#280000000
0$
0*
0Q
0X
0_
0f
#285000000
1"
1$
b0110 %
1(
1*
b0110 +
b0110 ,
b1001 -
b0000 .
b0111 /
b0000 0
12
13
06
19
1:
0<
0=
0>
1@
1A
0C
0D
0E
1G
0H
0K
1Q
0R
1S
0T
0V
1X
1Y
0Z
1[
0]
1_
1f
#290000000
0$
0*
0Q
0X
0_
0f
#295000000
1$
b0000 %
1*
b0000 +
b0000 ,
b1111 -
b0001 /
0:
0A
1Q
1X
0Y
1Z
0[
1_
0`
1a
0b
1f
#296000000
0"
0(
b0001 .
02
15
16
17
09
1=
0@
1D
0G
1K
1O
#300000000
0$
0*
0Q
0X
0_
0f
#305000000
1$
b0001 %
1*
b0001 +
b0001 ,
b1110 -
b0010 .
b0010 /
b0001 0
03
05
07
1:
1<
1>
0O
1Q
1R
0S
1T
1V
1X
1_
1f
#306000000
#307000000
#310000000
0$
0*
0Q
0X
0_
0f
#315000000
1$
b0010 %
1*
b0010 +
b0010 ,
b1101 -
b0011 .
b0011 /
b0000 0
13
15
17
1:
1<
1>
0A
0C
0E
1O
1Q
0R
1S
0T
1V
1X
1Y
0Z
1[
0]
1_
1f
#320000000
0$
0*
0Q
0X
0_
0f
#325000000
1$
b0011 %
1*
b0011 +
b0011 ,
b1100 -
b0100 .
b0100 /
b0011 0
03
05
07
0:
0<
0>
1A
1C
1E
0O
1Q
1R
0S
1T
0V
1X
1]
1_
1f
#330000000
0$
0*
0Q
0X
0_
0f
#335000000
1$
b0100 %
1*
b0100 +
b0100 ,
b1011 -
b0101 .
b0101 /
b0000 0
13
15
17
0:
0<
0>
1A
1C
1E
0H
0J
0L
1O
1Q
0R
1S
0T
0V
1X
0Y
1Z
0[
1]
1_
1`
0a
1b
0d
1f
#340000000
0$
0*
0Q
0X
0_
0f
#345000000
1$
b0101 %
1*
b0101 +
b0101 ,
b1010 -
b0110 .
b0110 /
b0001 0
03
05
07
1:
1<
1>
0O
1Q
1R
0S
1T
1V
1X
1_
1f
#350000000
0$
0*
0Q
0X
0_
0f
#355000000
1$
b0110 %
1*
b0110 +
b0110 ,
b1001 -
b0111 .
b0111 /
b0000 0
13
15
17
1:
1<
1>
1A
1C
1E
0H
0J
0L
1O
1Q
0R
1S
0T
1V
1X
1Y
0Z
1[
1]
1_
0d
1f
#360000000
0$
0*
0Q
0X
0_
0f
#365000000
1$
b0111 %
1*
b0111 +
b0111 ,
b1000 -
b1000 .
b1000 /
b0111 0
03
05
07
0:
0<
0>
0A
0C
0E
1H
1J
1L
0O
1Q
1R
0S
1T
0V
1X
0]
1_
1d
1f
#370000000
0$
0*
0Q
0X
0_
0f
#375000000
1$
b1000 %
1*
b1000 +
b1000 ,
b0111 -
b1001 .
b1001 /
b0000 0
13
15
17
0:
0<
0>
0A
0C
0E
1H
1J
1L
1O
1Q
0R
1S
0T
0V
1X
0Y
1Z
0[
0]
1_
0`
1a
0b
1d
1f
1g
0h
1i
#380000000
0$
0*
0Q
0X
0_
0f
#385000000
1$
b1001 %
1*
b1001 +
b1001 ,
b0110 -
b1010 .
b1010 /
b0001 0
03
05
07
1:
1<
1>
0O
1Q
1R
0S
1T
1V
1X
1_
1f
#390000000
0$
0*
0Q
0X
0_
0f
#395000000
1$
b1010 %
1*
b1010 +
b1010 ,
b0101 -
b1011 .
b1011 /
b0000 0
13
15
17
1:
1<
1>
0A
0C
0E
1O
1Q
0R
1S
0T
1V
1X
1Y
0Z
1[
0]
1_
1f
#397000000
1"
1(
b0000 .
12
05
06
07
19
0<
0=
0>
1@
0D
1G
0J
0K
0L
0O
0V
0d
#400000000
0$
0*
0Q
0X
0_
0f
#405000000
1$
b0000 %
1*
b0000 +
b0000 ,
b1111 -
b0001 /
0:
0H
1Q
1X
0Y
1Z
0[
1_
1f
0g
1h
0i
#407000000
#408000000
0"
0(
b0001 .
02
15
16
17
09
1=
0@
1D
0G
1K
1O
#410000000
0$
0*
0Q
0X
0_
0f
#415000000
1$
b0001 %
1*
b0001 +
b0001 ,
b1110 -
b0010 .
b0010 /
b0001 0
03
05
07
1:
1<
1>
0O
1Q
1R
0S
1T
1V
1X
1_
1f
#420000000
0$
0*
0Q
0X
0_
0f
#425000000
1$
b0010 %
1*
b0010 +
b0010 ,
b1101 -
b0011 .
b0011 /
b0000 0
13
15
17
1:
1<
1>
0A
0C
0E
1O
1Q
0R
1S
0T
1V
1X
1Y
0Z
1[
0]
1_
1f
#430000000
0$
0*
0Q
0X
0_
0f
#435000000
1$
b0011 %
1*
b0011 +
b0011 ,
b1100 -
b0100 .
b0100 /
b0011 0
03
05
07
0:
0<
0>
1A
1C
1E
0O
1Q
1R
0S
1T
0V
1X
1]
1_
1f
#438000000
1"
1(
b0000 .
12
06
19
0=
1@
0C
0D
0E
1G
0K
0]
#440000000
0$
0*
0Q
0X
0_
0f
#445000000
1$
b0000 %
1*
b0000 +
b0000 ,
b1111 -
b0001 /
b0000 0
13
0:
0A
1Q
0R
1S
0T
1X
0Y
1Z
0[
1_
1f
#448000000
#449000000
0"
0(
b0001 .
02
15
16
17
09
1=
0@
1D
0G
1K
1O
#450000000
0$
0*
0Q
0X
0_
0f
#455000000
1$
b0001 %
1*
b0001 +
b0001 ,
b1110 -
b0010 .
b0010 /
b0001 0
03
05
07
1:
1<
1>
0O
1Q
1R
0S
1T
1V
1X
1_
1f
#460000000
0$
0*
0Q
0X
0_
0f
#465000000
1$
b0010 %
1*
b0010 +
b0010 ,
b1101 -
b0011 .
b0011 /
b0000 0
13
15
17
1:
1<
1>
0A
0C
0E
1O
1Q
0R
1S
0T
1V
1X
1Y
0Z
1[
0]
1_
1f
#470000000
0$
0*
0Q
0X
0_
0f
#475000000
1$
b0011 %
1*
b0011 +
b0011 ,
b1100 -
b0100 .
b0100 /
b0011 0
03
05
07
0:
0<
0>
1A
1C
1E
0O
1Q
1R
0S
1T
0V
1X
1]
1_
1f
#479000000
#480000000
0$
0*
0Q
0X
0_
0f
#485000000
1$
b0100 %
1*
b0100 +
b0100 ,
b1011 -
b0101 .
b0101 /
b0000 0
13
15
17
0:
0<
0>
1A
1C
1E
0H
0J
0L
1O
1Q
0R
1S
0T
0V
1X
0Y
1Z
0[
1]
1_
1`
0a
1b
0d
1f
#490000000
0$
0*
0Q
0X
0_
0f
#495000000
1$
b0101 %
1*
b0101 +
b0101 ,
b1010 -
b0110 .
b0110 /
b0001 0
03
05
07
1:
1<
1>
0O
1Q
1R
0S
1T
1V
1X
1_
1f
