output/nBitLeftShiftRegister.vcd
$date
  Tue Nov 11 18:19:02 2025
$end
$version
  GHDL v0
$end
$timescale
  1 fs
$end
$scope module standard $end
$upscope $end
$scope module std_logic_1164 $end
$upscope $end
$scope module tb_nbitleftshiftregister $end
$var reg 1 ! tb_resetbar $end
$var reg 1 " tb_load $end
$var reg 1 # tb_clock $end
$var reg 1 $ tb_value $end
$var reg 8 % tb_output[7:0] $end
$scope module uut $end
$var reg 1 & i_resetbar $end
$var reg 1 ' i_load $end
$var reg 1 ( i_clock $end
$var reg 1 ) i_value $end
$var reg 8 * o_value[7:0] $end
$var reg 8 + int_value[7:0] $end
$var reg 8 , int_notvalue[7:0] $end
$scope module lsb $end
$var reg 1 - i_resetbar $end
$var reg 1 . i_d $end
$var reg 1 / i_enable $end
$var reg 1 0 i_clock $end
$var reg 1 1 o_q $end
$var reg 1 2 o_qbar $end
$var reg 1 3 int_q $end
$upscope $end
$scope module gen_shift(1) $end
$scope module shift_ff $end
$var reg 1 4 i_resetbar $end
$var reg 1 5 i_d $end
$var reg 1 6 i_enable $end
$var reg 1 7 i_clock $end
$var reg 1 8 o_q $end
$var reg 1 9 o_qbar $end
$var reg 1 : int_q $end
$upscope $end
$upscope $end
$scope module gen_shift(2) $end
$scope module shift_ff $end
$var reg 1 ; i_resetbar $end
$var reg 1 < i_d $end
$var reg 1 = i_enable $end
$var reg 1 > i_clock $end
$var reg 1 ? o_q $end
$var reg 1 @ o_qbar $end
$var reg 1 A int_q $end
$upscope $end
$upscope $end
$scope module gen_shift(3) $end
$scope module shift_ff $end
$var reg 1 B i_resetbar $end
$var reg 1 C i_d $end
$var reg 1 D i_enable $end
$var reg 1 E i_clock $end
$var reg 1 F o_q $end
$var reg 1 G o_qbar $end
$var reg 1 H int_q $end
$upscope $end
$upscope $end
$scope module gen_shift(4) $end
$scope module shift_ff $end
$var reg 1 I i_resetbar $end
$var reg 1 J i_d $end
$var reg 1 K i_enable $end
$var reg 1 L i_clock $end
$var reg 1 M o_q $end
$var reg 1 N o_qbar $end
$var reg 1 O int_q $end
$upscope $end
$upscope $end
$scope module gen_shift(5) $end
$scope module shift_ff $end
$var reg 1 P i_resetbar $end
$var reg 1 Q i_d $end
$var reg 1 R i_enable $end
$var reg 1 S i_clock $end
$var reg 1 T o_q $end
$var reg 1 U o_qbar $end
$var reg 1 V int_q $end
$upscope $end
$upscope $end
$scope module gen_shift(6) $end
$scope module shift_ff $end
$var reg 1 W i_resetbar $end
$var reg 1 X i_d $end
$var reg 1 Y i_enable $end
$var reg 1 Z i_clock $end
$var reg 1 [ o_q $end
$var reg 1 \ o_qbar $end
$var reg 1 ] int_q $end
$upscope $end
$upscope $end
$scope module gen_shift(7) $end
$scope module shift_ff $end
$var reg 1 ^ i_resetbar $end
$var reg 1 _ i_d $end
$var reg 1 ` i_enable $end
$var reg 1 a i_clock $end
$var reg 1 b o_q $end
$var reg 1 c o_qbar $end
$var reg 1 d int_q $end
$upscope $end
$upscope $end
$upscope $end
$upscope $end
$enddefinitions $end
#0
0!
0"
0#
0$
b00000000 %
0&
0'
0(
0)
b00000000 *
b00000000 +
b11111111 ,
0-
0.
0/
00
01
12
03
04
05
06
07
08
19
0:
0;
0<
0=
0>
0?
1@
0A
0B
0C
0D
0E
0F
1G
0H
0I
0J
0K
0L
0M
1N
0O
0P
0Q
0R
0S
0T
1U
0V
0W
0X
0Y
0Z
0[
1\
0]
0^
0_
0`
0a
0b
1c
0d
#5000000
1#
1(
10
17
1>
1E
1L
1S
1Z
1a
#10000000
0#
0(
00
07
0>
0E
0L
0S
0Z
0a
#15000000
1#
1(
10
17
1>
1E
1L
1S
1Z
1a
#20000000
1!
0#
1&
0(
1-
00
14
07
1;
0>
1B
0E
1I
0L
1P
0S
1W
0Z
1^
0a
#25000000
1#
1(
10
17
1>
1E
1L
1S
1Z
1a
#30000000
1"
0#
1$
1'
0(
1)
1.
1/
00
16
07
1=
0>
1D
0E
1K
0L
1R
0S
1Y
0Z
1`
0a
#35000000
1#
b00000001 %
1(
b00000001 *
b00000001 +
b11111110 ,
10
11
02
13
15
17
1>
1E
1L
1S
1Z
1a
#40000000
0#
0$
0(
0)
0.
00
07
0>
0E
0L
0S
0Z
0a
#45000000
1#
b00000010 %
1(
b00000010 *
b00000010 +
b11111101 ,
10
01
12
03
05
17
18
09
1:
1<
1>
1E
1L
1S
1Z
1a
#50000000
0#
0(
00
07
0>
0E
0L
0S
0Z
0a
#55000000
1#
b00000100 %
1(
b00000100 *
b00000100 +
b11111011 ,
10
17
08
19
0:
0<
1>
1?
0@
1A
1C
1E
1L
1S
1Z
1a
#60000000
0#
0(
00
07
0>
0E
0L
0S
0Z
0a
#65000000
1#
b00001000 %
1(
b00001000 *
b00001000 +
b11110111 ,
10
17
1>
0?
1@
0A
0C
1E
1F
0G
1H
1J
1L
1S
1Z
1a
#70000000
0#
1$
0(
1)
1.
00
07
0>
0E
0L
0S
0Z
0a
#75000000
1#
b00010001 %
1(
b00010001 *
b00010001 +
b11101110 ,
10
11
02
13
15
17
1>
1E
0F
1G
0H
0J
1L
1M
0N
1O
1Q
1S
1Z
1a
#80000000
0#
0(
00
07
0>
0E
0L
0S
0Z
0a
#85000000
1#
b00100011 %
1(
b00100011 *
b00100011 +
b11011100 ,
10
17
18
09
1:
1<
1>
1E
1L
0M
1N
0O
0Q
1S
1T
0U
1V
1X
1Z
1a
#90000000
0#
0$
0(
0)
0.
00
07
0>
0E
0L
0S
0Z
0a
#95000000
1#
b01000110 %
1(
b01000110 *
b01000110 +
b10111001 ,
10
01
12
03
05
17
1>
1?
0@
1A
1C
1E
1L
1S
0T
1U
0V
0X
1Z
1[
0\
1]
1_
1a
#100000000
0#
1$
0(
1)
1.
00
07
0>
0E
0L
0S
0Z
0a
#105000000
1#
b10001101 %
1(
b10001101 *
b10001101 +
b01110010 ,
10
11
02
13
15
17
08
19
0:
0<
1>
1E
1F
0G
1H
1J
1L
1S
1Z
0[
1\
0]
0_
1a
1b
0c
1d
#110000000
0#
0$
0(
0)
0.
00
07
0>
0E
0L
0S
0Z
0a
#115000000
1#
b00011010 %
1(
b00011010 *
b00011010 +
b11100101 ,
10
01
12
03
05
17
18
09
1:
1<
1>
0?
1@
0A
0C
1E
1L
1M
0N
1O
1Q
1S
1Z
1a
0b
1c
0d
#120000000
0#
0(
00
07
0>
0E
0L
0S
0Z
0a
#125000000
1#
b00110100 %
1(
b00110100 *
b00110100 +
b11001011 ,
10
17
08
19
0:
0<
1>
1?
0@
1A
1C
1E
0F
1G
0H
0J
1L
1S
1T
0U
1V
1X
1Z
1a
#130000000
0#
0(
00
07
0>
0E
0L
0S
0Z
0a
#135000000
1#
b01101000 %
1(
b01101000 *
b01101000 +
b10010111 ,
10
17
1>
0?
1@
0A
0C
1E
1F
0G
1H
1J
1L
0M
1N
0O
0Q
1S
1Z
1[
0\
1]
1_
1a
#140000000
0#
0(
00
07
0>
0E
0L
0S
0Z
0a
#145000000
1#
b11010000 %
1(
b11010000 *
b11010000 +
b00101111 ,
10
17
1>
1E
0F
1G
0H
0J
1L
1M
0N
1O
1Q
1S
0T
1U
0V
0X
1Z
1a
1b
0c
1d
#150000000
0"
0#
1$
0'
0(
1)
1.
0/
00
06
07
0=
0>
0D
0E
0K
0L
0R
0S
0Y
0Z
0`
0a
#155000000
1#
1(
10
17
1>
1E
1L
1S
1Z
1a
#160000000
0#
0(
00
07
0>
0E
0L
0S
0Z
0a
#165000000
1#
1(
10
17
1>
1E
1L
1S
1Z
1a
#170000000
0#
0(
00
07
0>
0E
0L
0S
0Z
0a
#175000000
1#
1(
10
17
1>
1E
1L
1S
1Z
1a
#180000000
0!
0#
b00000000 %
0&
0(
b00000000 *
b00000000 +
b11111111 ,
0-
00
04
07
0;
0>
0B
0E
0I
0L
0M
1N
0O
0P
0Q
0S
0W
0Z
0[
1\
0]
0^
0_
0a
0b
1c
0d
