output/transceiverFSMControl.vcd
$date
  Wed Nov 19 18:27:36 2025
$end
$version
  GHDL v0
$end
$timescale
  1 fs
$end
$scope module standard $end
$upscope $end
$scope module std_logic_1164 $end
$upscope $end
$scope module tb_transceiverfsmcontrol $end
$var reg 1 ! tdre $end
$var reg 1 " tsrf $end
$var reg 1 # txd $end
$var reg 1 $ c8 $end
$var reg 1 % g_clock $end
$var reg 1 & g_reset $end
$var reg 1 ' resetcount $end
$var reg 1 ( shiften $end
$var reg 1 ) loaden $end
$var reg 1 * txout $end
$var reg 3 + stateout[2:0] $end
$var reg 1 , stop_clock $end
$scope module uut $end
$var reg 1 - tdre $end
$var reg 1 . tsrf $end
$var reg 1 / txd $end
$var reg 1 0 c8 $end
$var reg 1 1 g_clock $end
$var reg 1 2 g_reset $end
$var reg 1 3 resetcount $end
$var reg 1 4 shiften $end
$var reg 1 5 loaden $end
$var reg 1 6 txout $end
$var reg 3 7 stateout[2:0] $end
$var reg 1 8 w $end
$var reg 1 9 y2 $end
$var reg 1 : y1 $end
$var reg 1 ; y0 $end
$var reg 1 < n_w $end
$var reg 1 = n_y2 $end
$var reg 1 > n_y1 $end
$var reg 1 ? n_y0 $end
$var reg 1 @ sa $end
$var reg 1 A sb $end
$var reg 1 B sc $end
$var reg 1 C sd $end
$var reg 1 D se $end
$var reg 1 E i_d0 $end
$var reg 1 F i_d1 $end
$var reg 1 G i_d2 $end
$var reg 1 H resetcountsignal $end
$scope module dff_y2 $end
$var reg 1 I i_resetbar $end
$var reg 1 J i_d $end
$var reg 1 K i_enable $end
$var reg 1 L i_clock $end
$var reg 1 M o_q $end
$var reg 1 N o_qbar $end
$var reg 1 O int_q $end
$upscope $end
$scope module dff_y1 $end
$var reg 1 P i_resetbar $end
$var reg 1 Q i_d $end
$var reg 1 R i_enable $end
$var reg 1 S i_clock $end
$var reg 1 T o_q $end
$var reg 1 U o_qbar $end
$var reg 1 V int_q $end
$upscope $end
$scope module dff_y0 $end
$var reg 1 W i_resetbar $end
$var reg 1 X i_d $end
$var reg 1 Y i_enable $end
$var reg 1 Z i_clock $end
$var reg 1 [ o_q $end
$var reg 1 \ o_qbar $end
$var reg 1 ] int_q $end
$upscope $end
$scope module dff_resetcount $end
$var reg 1 ^ i_resetbar $end
$var reg 1 _ i_d $end
$var reg 1 ` i_enable $end
$var reg 1 a i_clock $end
$var reg 1 b o_q $end
$var reg 1 c o_qbar $end
$var reg 1 d int_q $end
$upscope $end
$upscope $end
$upscope $end
$enddefinitions $end
#0
1!
0"
0#
0$
0%
0&
0'
0(
0)
1*
b000 +
0,
1-
0.
0/
00
01
02
03
04
05
16
b000 7
08
09
0:
0;
1<
1=
1>
1?
1@
0A
0B
0C
0D
0E
0F
0G
0H
0I
0J
1K
0L
0M
1N
0O
0P
0Q
1R
0S
0T
1U
0V
0W
0X
1Y
0Z
0[
1\
0]
0^
0_
1`
0a
0b
1c
0d
#5000000
1%
11
1L
1S
1Z
1a
#10000000
0%
01
0L
0S
0Z
0a
#15000000
1%
11
1L
1S
1Z
1a
#20000000
0%
1&
01
12
1I
0L
1P
0S
1W
0Z
1^
0a
#25000000
1%
11
1L
1S
1Z
1a
#30000000
0%
01
0L
0S
0Z
0a
#35000000
1%
11
1L
1S
1Z
1a
#40000000
0%
01
0L
0S
0Z
0a
#45000000
1%
11
1L
1S
1Z
1a
#50000000
0%
01
0L
0S
0Z
0a
#51000000
0!
0-
18
0<
1E
1X
#55000000
1%
1)
0*
b001 +
11
15
06
b001 7
08
1;
1<
0?
0@
1A
1E
0F
0H
1L
0Q
1S
1X
1Z
1[
0\
1]
0_
1a
#60000000
0%
01
0L
0S
0Z
0a
#61000000
#62000000
#65000000
1%
11
1L
1S
1Z
1a
#70000000
0%
01
0L
0S
0Z
0a
#72000000
#73000000
1"
1.
18
0<
0E
1F
1H
1Q
0X
1_
#75000000
1%
1'
1(
0)
b010 +
11
13
14
05
b010 7
1:
0;
0>
1?
0A
1B
1E
0H
1L
1S
1T
0U
1V
1X
1Z
0[
1\
0]
0_
1a
1b
0c
1d
#80000000
0%
01
0L
0S
0Z
0a
#83000000
#84000000
1#
1/
08
1<
0E
0X
#85000000
1%
0'
11
03
1L
1S
1Z
1a
0b
1c
0d
#90000000
0%
01
0L
0S
0Z
0a
#94000000
#95000000
0#
1%
0/
11
18
0<
1E
1L
1S
1X
1Z
1a
#100000000
0%
01
0L
0S
0Z
0a
#105000000
1%
b011 +
11
b011 7
08
1;
1<
0?
0B
1C
1E
1F
0G
0J
1L
1Q
1S
1X
1Z
1[
0\
1]
1a
#106000000
#110000000
0%
01
0L
0S
0Z
0a
#115000000
1%
11
1L
1S
1Z
1a
#120000000
0%
01
0L
0S
0Z
0a
#125000000
1%
11
1L
1S
1Z
1a
#126000000
#127000000
1$
10
18
0<
0E
0F
1G
1J
0Q
0X
#130000000
0%
01
0L
0S
0Z
0a
#135000000
1%
0(
1*
b100 +
11
04
16
b100 7
19
0:
0;
0=
1>
1?
0C
1D
0G
0J
1L
1M
0N
1O
1S
0T
1U
0V
1Z
0[
1\
0]
1a
#137000000
#138000000
1!
1-
08
1<
1G
1J
#140000000
0%
01
0L
0S
0Z
0a
#145000000
1%
11
1L
1S
1Z
1a
#150000000
0%
01
0L
0S
0Z
0a
#155000000
1%
11
1L
1S
1Z
1a
#158000000
#159000000
0!
0-
18
0<
0G
0J
#160000000
0%
01
0L
0S
0Z
0a
#165000000
1%
b000 +
11
b000 7
09
1=
1@
0D
1E
1L
0M
1N
0O
1S
1X
1Z
1a
#169000000
#170000000
1!
0"
0$
0%
1-
0.
00
01
08
1<
0E
0L
0S
0X
0Z
0a
#175000000
1%
11
1L
1S
1Z
1a
#180000000
0!
0%
0-
01
18
0<
1E
0L
0S
1X
0Z
0a
#185000000
1%
1)
0*
b001 +
11
15
06
b001 7
08
1;
1<
0?
0@
1A
1E
0F
0H
1L
0Q
1S
1X
1Z
1[
0\
1]
0_
1a
#190000000
0%
01
0L
0S
0Z
0a
#191000000
1"
1.
18
0<
0E
1F
1H
1Q
0X
1_
#195000000
1%
1'
1(
0)
b010 +
11
13
14
05
b010 7
1:
0;
0>
1?
0A
1B
1E
0H
1L
1S
1T
0U
1V
1X
1Z
0[
1\
0]
0_
1a
1b
0c
1d
#200000000
0%
01
0L
0S
0Z
0a
#201000000
#202000000
#205000000
1%
0'
b011 +
11
03
b011 7
08
1;
1<
0?
0B
1C
1E
1F
0G
0J
1L
1Q
1S
1X
1Z
1[
0\
1]
1a
0b
1c
0d
#210000000
0%
01
0L
0S
0Z
0a
#212000000
#213000000
1$
10
18
0<
0E
0F
1G
1J
0Q
0X
#215000000
1%
0(
1*
b100 +
11
04
16
b100 7
19
0:
0;
0=
1>
1?
0C
1D
0G
0J
1L
1M
0N
1O
1S
0T
1U
0V
1Z
0[
1\
0]
1a
#220000000
0%
01
0L
0S
0Z
0a
#223000000
#224000000
#225000000
1%
b000 +
11
b000 7
09
1=
1@
0D
1E
1L
0M
1N
0O
1S
1X
1Z
1a
#230000000
0%
01
0L
0S
0Z
0a
#234000000
#235000000
1%
1)
0*
b001 +
11
15
06
b001 7
1;
0?
0@
1A
0E
1F
1H
1L
1Q
1S
0X
1Z
1[
0\
1]
1_
1a
#240000000
0%
01
0L
0S
0Z
0a
#245000000
1%
1'
1(
0)
b010 +
11
13
14
05
b010 7
1:
0;
0>
1?
0A
1B
1E
0H
1L
1S
1T
0U
1V
1X
1Z
0[
1\
0]
0_
1a
1b
0c
1d
#250000000
0%
01
0L
0S
0Z
0a
#255000000
1%
0&
0'
0(
1*
b000 +
11
02
03
04
16
b000 7
0:
1>
1@
0B
0F
0I
1L
0P
0Q
1S
0T
1U
0V
0W
1Z
0^
1a
0b
1c
0d
#260000000
0%
01
0L
0S
0Z
0a
#265000000
1%
11
1L
1S
1Z
1a
#266000000
1&
12
1I
1P
1W
1^
#270000000
0%
01
0L
0S
0Z
0a
#275000000
1%
1)
0*
b001 +
11
15
06
b001 7
1;
0?
0@
1A
0E
1F
1H
1L
1Q
1S
0X
1Z
1[
0\
1]
1_
1a
#276000000
0"
0.
08
1<
1E
0F
0H
0Q
1X
0_
#280000000
0%
01
0L
0S
0Z
0a
#285000000
1%
11
1L
1S
1Z
1a
#286000000
#287000000
1"
1.
18
0<
0E
1F
1H
1Q
0X
1_
#290000000
0%
01
0L
0S
0Z
0a
#295000000
1%
1'
1(
0)
b010 +
11
13
14
05
b010 7
1:
0;
0>
1?
0A
1B
1E
0H
1L
1S
1T
0U
1V
1X
1Z
0[
1\
0]
0_
1a
1b
0c
1d
